%YAML 1.1
%TAG !u! tag:unity3d.com,2011:
--- !u!1045 &1
EditorBuildSettings:
  m_ObjectHideFlags: 0
  serializedVersion: 2
  m_Scenes:
  - enabled: 1
    path: Assets/ThirdParties/SS/View/Demo/Scenes/Main/DMain.unity
    guid: 2cda990e2423bbf4892e6590ba056729
  - enabled: 1
    path: Assets/ThirdParties/SS/View/Demo/Scenes/Game/DGame.unity
    guid: 9761bb7ca9fbb42889fd55b2d3fc28d1
  - enabled: 1
    path: Assets/ThirdParties/SS/View/Demo/Scenes/Loading/DLoading.unity
    guid: 25f342e2e2656462992f0a79298b6b1c
  - enabled: 1
    path: Assets/ThirdParties/SS/View/Demo/Scenes/Popup/DPopup.unity
    guid: 46411c47c24404545aea993c486be51b
  - enabled: 1
    path: Assets/ThirdParties/SS/View/Demo/Scenes/Select/DSelect.unity
    guid: e63256b2e0e154a8ba28cf67546532ca
  - enabled: 1
    path: Assets/ThirdParties/SS/View/Demo/Scenes/Top/DTop.unity
    guid: 014247655ec5f4ebdbe375f00e5821f4
  - enabled: 1
    path: Assets/Project/Scenes/DtestNonFull/DtestNonFull.unity
    guid: f7e418eb46ef3f94e8de71d4e23523e7
  - enabled: 1
    path: Assets/Project/Scenes/DtestFull/DtestFull.unity
    guid: f6f078eef0166464e8a48862a7096468
  - enabled: 1
    path: Assets/Project/Scenes/Popup/Popup.unity
    guid: 63f5c37be131d4645a5fb9bcef051615
  m_configObjects: {}
